{
    "$schema": "https://schema.management.azure.com/schemas/2018-05-01/deploymentTemplate.json#",
    "contentVersion": "1.0.0.0",
    "parameters": {
        "serviceFullName": {
            "type": "string",
            "metadata": {
                "description": "Full name of this service. E.g. 'Psychology Duckling Application' or 'UO Maps'"
            }
        },
        "serviceShortName": {
            "type": "string",
            "metadata": {
                "description": "Shorthand for the service that this resource group contains. Only lowercase alpha-characters. No longer than 18 characters. E.g. findpeople, duckling, killerapp, uomaps, iscommon, wscommon, etc..."
            }
        },
        "environment": {
            "type": "string",
            "allowedValues": [
                "dev",
                "prod",
                "uat",
                "qa"
            ],
            "metadata": {
                "description": "Environment to provision. Used for resource naming."
            }
        },
        "role": {
            "type": "string",
            "defaultValue": "application",
            "allowedValues": [
                "api",
                "frontend",
                "service",
                "application"
            ],
            "metadata": {
                "description": "Role of this app service in the overall service. E.g. an application may be composed of two app services, one for the Frontend, another for a backing API. Alternately, an application may be contained within one app service, in which case select 'application' or 'service.'"
            }
        },
        "appServicePlanResourceGroup": {
            "type": "string",
            "metadata": {
                "description": "The resource group that contains the app service plan."
            }
        },
        "appServicePlanName": {
            "type": "string",
            "metadata": {
                "description": "The name of the app service plan."
            }
        }
    },
    "variables": {
        "location": "[resourceGroup().location]",
        "appServiceName": "[concat(parameters('serviceShortName'), '-', parameters('role'), '-', parameters('environment'), '-app')]",
        "fullyQualifiedAppServicePlanName": "[resourceId(parameters('appServicePlanResourceGroup'), 'Microsoft.Web/serverFarms', parameters('appServicePlanName'))]"
    },
    "resources": [
        {
            "comments": "A CASIT App Service",
            "apiVersion": "2018-02-01",
            "type": "Microsoft.Web/sites",
            "name": "[variables('appServiceName')]",
            "properties": {
                "serverFarmId": "[variables('fullyQualifiedAppServicePlanName')]",
                "httpsOnly": true
            },
            "location": "[variables('location')]",
            "tags": {
                "ProjectName": "[parameters('serviceFullName')]"
            }
        }
    ],
    "outputs": {
        "AppServiceName": {
            "type": "string",
            "value": "[variables('appServiceName')]"
        }
    }
}